[2020-04-17 03:02:40,883] INFO Shutting down the log cleaner. (kafka.log.LogCleaner)
[2020-04-17 03:02:40,883] INFO [kafka-log-cleaner-thread-0]: Shutting down (kafka.log.LogCleaner)
[2020-04-17 03:02:40,883] INFO [kafka-log-cleaner-thread-0]: Stopped (kafka.log.LogCleaner)
[2020-04-17 03:02:40,884] INFO [kafka-log-cleaner-thread-0]: Shutdown completed (kafka.log.LogCleaner)
[2020-04-17 03:02:48,021] INFO Starting the log cleaner (kafka.log.LogCleaner)
[2020-04-17 03:02:48,114] INFO [kafka-log-cleaner-thread-0]: Starting (kafka.log.LogCleaner)
[2020-04-17 03:15:06,593] INFO Shutting down the log cleaner. (kafka.log.LogCleaner)
[2020-04-17 03:15:06,594] INFO [kafka-log-cleaner-thread-0]: Shutting down (kafka.log.LogCleaner)
[2020-04-17 03:15:06,594] INFO [kafka-log-cleaner-thread-0]: Stopped (kafka.log.LogCleaner)
[2020-04-17 03:15:06,594] INFO [kafka-log-cleaner-thread-0]: Shutdown completed (kafka.log.LogCleaner)
[2020-04-17 03:15:13,763] INFO Starting the log cleaner (kafka.log.LogCleaner)
[2020-04-17 03:15:13,850] INFO [kafka-log-cleaner-thread-0]: Starting (kafka.log.LogCleaner)
[2020-04-17 03:15:19,729] INFO Shutting down the log cleaner. (kafka.log.LogCleaner)
[2020-04-17 03:15:19,730] INFO [kafka-log-cleaner-thread-0]: Shutting down (kafka.log.LogCleaner)
[2020-04-17 03:15:19,734] INFO [kafka-log-cleaner-thread-0]: Stopped (kafka.log.LogCleaner)
[2020-04-17 03:15:19,735] INFO [kafka-log-cleaner-thread-0]: Shutdown completed (kafka.log.LogCleaner)
[2020-04-17 03:15:36,729] INFO Starting the log cleaner (kafka.log.LogCleaner)
[2020-04-17 03:15:36,822] INFO [kafka-log-cleaner-thread-0]: Starting (kafka.log.LogCleaner)
[2020-04-17 03:19:45,368] INFO Starting the log cleaner (kafka.log.LogCleaner)
[2020-04-17 03:19:45,474] INFO [kafka-log-cleaner-thread-0]: Starting (kafka.log.LogCleaner)
[2020-04-17 03:19:46,409] INFO Shutting down the log cleaner. (kafka.log.LogCleaner)
[2020-04-17 03:19:46,409] INFO [kafka-log-cleaner-thread-0]: Shutting down (kafka.log.LogCleaner)
[2020-04-17 03:19:46,409] INFO [kafka-log-cleaner-thread-0]: Stopped (kafka.log.LogCleaner)
[2020-04-17 03:19:46,410] INFO [kafka-log-cleaner-thread-0]: Shutdown completed (kafka.log.LogCleaner)
[2020-04-17 03:21:08,713] INFO Starting the log cleaner (kafka.log.LogCleaner)
[2020-04-17 03:21:08,817] INFO [kafka-log-cleaner-thread-0]: Starting (kafka.log.LogCleaner)
[2020-04-17 03:22:18,218] INFO Shutting down the log cleaner. (kafka.log.LogCleaner)
[2020-04-17 03:22:18,219] INFO [kafka-log-cleaner-thread-0]: Shutting down (kafka.log.LogCleaner)
[2020-04-17 03:22:18,219] INFO [kafka-log-cleaner-thread-0]: Stopped (kafka.log.LogCleaner)
[2020-04-17 03:22:18,219] INFO [kafka-log-cleaner-thread-0]: Shutdown completed (kafka.log.LogCleaner)
[2020-04-17 03:22:33,567] INFO Starting the log cleaner (kafka.log.LogCleaner)
[2020-04-17 03:22:33,655] INFO [kafka-log-cleaner-thread-0]: Starting (kafka.log.LogCleaner)
[2020-04-17 03:24:16,950] INFO Shutting down the log cleaner. (kafka.log.LogCleaner)
[2020-04-17 03:24:16,950] INFO [kafka-log-cleaner-thread-0]: Shutting down (kafka.log.LogCleaner)
[2020-04-17 03:24:16,951] INFO [kafka-log-cleaner-thread-0]: Stopped (kafka.log.LogCleaner)
[2020-04-17 03:24:16,951] INFO [kafka-log-cleaner-thread-0]: Shutdown completed (kafka.log.LogCleaner)
[2020-04-17 03:24:24,163] INFO Starting the log cleaner (kafka.log.LogCleaner)
[2020-04-17 03:24:24,249] INFO [kafka-log-cleaner-thread-0]: Starting (kafka.log.LogCleaner)
[2020-04-17 03:29:58,417] INFO Shutting down the log cleaner. (kafka.log.LogCleaner)
[2020-04-17 03:29:58,417] INFO [kafka-log-cleaner-thread-0]: Shutting down (kafka.log.LogCleaner)
[2020-04-17 03:29:58,419] INFO [kafka-log-cleaner-thread-0]: Stopped (kafka.log.LogCleaner)
[2020-04-17 03:29:58,419] INFO [kafka-log-cleaner-thread-0]: Shutdown completed (kafka.log.LogCleaner)
[2020-04-17 03:31:36,679] INFO Starting the log cleaner (kafka.log.LogCleaner)
[2020-04-17 03:31:36,766] INFO [kafka-log-cleaner-thread-0]: Starting (kafka.log.LogCleaner)
[2020-04-17 03:33:45,966] INFO Shutting down the log cleaner. (kafka.log.LogCleaner)
[2020-04-17 03:33:45,966] INFO [kafka-log-cleaner-thread-0]: Shutting down (kafka.log.LogCleaner)
[2020-04-17 03:33:45,967] INFO [kafka-log-cleaner-thread-0]: Stopped (kafka.log.LogCleaner)
[2020-04-17 03:33:45,967] INFO [kafka-log-cleaner-thread-0]: Shutdown completed (kafka.log.LogCleaner)
[2020-04-17 03:34:06,356] INFO Starting the log cleaner (kafka.log.LogCleaner)
[2020-04-17 03:34:06,450] INFO [kafka-log-cleaner-thread-0]: Starting (kafka.log.LogCleaner)
